{
    "seed": 200,
    "bitrate": "0.5MBps",
    "latency": 0.01,
    "extended": false,
    "hint_size": 8,
    "nodes": {
        "on0": {
            "use_hint": true,
            "power_off": 0.0,
            "power_on": 0.4,
            "power_rx": 0.65,
            "power_tx": 0.65,
            "is_sender": true,
            "data_size": 1000000,
            "wake_ts": [
                5,
                50
            ],
            "wake_duration": [
                10,
                10
            ]
        },
        "on1": {
            "use_hint": true,
            "power_off": 0.0,
            "power_on": 0.4,
            "power_rx": 0.65,
            "power_tx": 0.65,
            "is_sender": false,
            "data_size": 1000000,
            "wake_ts": [
                0,
                20
            ],
            "wake_duration": [
                10,
                10
            ]
        },
        "on2": {
            "use_hint": true,
            "power_off": 0.0,
            "power_on": 0.4,
            "power_rx": 0.65,
            "power_tx": 0.65,
            "is_sender": false,
            "data_size": 1000000,
            "wake_ts": [
                25
            ],
            "wake_duration": [
                10
            ]
        }
    }
}